risc_hw/risc_hw.sim/sim_1/behav/xsim/dump.vcd
$date
   Sun Apr 13 23:32:38 2025
$end
$version
  2023.1
$end
$timescale
  1ps
$end
$scope module tb $end
$var reg 32 ! addr [31:0] $end
$var reg 32 " data [31:0] $end
$var reg 32 # pc [31:0] $end
$var reg 32 $ instr [31:0] $end
$var reg 5 % reg_addr [4:0] $end
$var reg 32 & reg_data [31:0] $end
$var reg 32 ' mem_addr [31:0] $end
$var reg 32 ( mem_data [31:0] $end
$var reg 1 ) mem_wrt $end
$var reg 1 * update $end
$var reg 1 + clk $end
$var reg 1 , rstn $end
$var integer 32 - file_pointer [31:0] $end
$scope module i_core_model $end
$var wire 1 . clk_i $end
$var wire 1 / rstn_i $end
$var wire 32 0 addr_i [31:0] $end
$var reg 32 " data_o [31:0] $end
$var reg 1 * update_o $end
$var reg 32 # pc_o [31:0] $end
$var reg 32 $ instr_o [31:0] $end
$var reg 5 % reg_addr_o [4:0] $end
$var reg 32 & reg_data_o [31:0] $end
$var reg 32 ' mem_addr_o [31:0] $end
$var reg 32 ( mem_data_o [31:0] $end
$var reg 1 ) mem_wrt_o $end
$var reg 32 1 instr_out [31:0] $end
$var reg 32 2 PC [31:0] $end
$var reg 32 3 pc_next [31:0] $end
$var reg 32 4 Result [31:0] $end
$var reg 32 5 rd1 [31:0] $end
$var reg 32 6 rd2 [31:0] $end
$var reg 32 7 Src_B [31:0] $end
$var reg 1 8 zero $end
$var reg 1 9 PC_src $end
$var reg 1 : we $end
$var reg 1 ; u_s $end
$var reg 1 < reg_write $end
$var reg 2 = Res_src [1:0] $end
$var reg 4 > ALU_Control [3:0] $end
$var reg 1 ? ALU_src $end
$var reg 4 @ wstrb [3:0] $end
$var reg 4 A wstrb_load [3:0] $end
$var reg 3 B Imm_src [2:0] $end
$var reg 2 C zero_counter [1:0] $end
$var reg 32 D ALU_res [31:0] $end
$var reg 32 E Read_Data [31:0] $end
$var reg 32 F PC_plus4 [31:0] $end
$var reg 32 G PC_target [31:0] $end
$var reg 32 H Imm_Ext [31:0] $end
$var reg 32 I PC_in [31:0] $end
$var reg 1 J pc_in_sel $end
$scope module mux_pcnexttt $end
$var wire 1 K PC_Src $end
$var wire 32 L PC_plus4 [31:0] $end
$var wire 32 M PC_target [31:0] $end
$var reg 32 3 PC_next [31:0] $end
$upscope $end
$scope module pc $end
$var wire 1 . clk_i $end
$var wire 1 / rst_ni $end
$var wire 32 N pc_next [31:0] $end
$var reg 32 2 PC [31:0] $end
$upscope $end
$scope module i_mem $end
$var wire 32 O addr_instr [31:0] $end
$var reg 32 1 instr_out [31:0] $end
$var reg 32 P address [31:0] $end
$upscope $end
$scope module plusfour $end
$var wire 32 Q PC [31:0] $end
$var reg 32 F PC_plus4 [31:0] $end
$upscope $end
$scope module rf $end
$var wire 1 . clk_i $end
$var wire 1 / rst_ni $end
$var wire 1 R we_i $end
$var wire 32 S data_in [31:0] $end
$var wire 5 T addr1_r [4:0] $end
$var wire 5 U addr2_r [4:0] $end
$var wire 5 V addr3_w [4:0] $end
$var reg 32 5 data_out_1 [31:0] $end
$var reg 32 6 data_out_2 [31:0] $end
$var reg 6 W i [5:0] $end
$upscope $end
$scope module cont_unit $end
$var wire 32 X instr_i [31:0] $end
$var wire 1 Y zero $end
$var wire 1 Z PC_src $end
$var reg 2 = Res_src [1:0] $end
$var reg 1 : mem_write $end
$var reg 4 > ALU_Control [3:0] $end
$var reg 1 ; u_s $end
$var reg 1 ? ALU_src $end
$var reg 4 @ wstrb [3:0] $end
$var reg 4 A wstrb_load [3:0] $end
$var reg 3 B Imm_src [2:0] $end
$var reg 1 < reg_write $end
$var reg 2 C zero_counter [1:0] $end
$var reg 1 J pc_in_sel $end
$var reg 7 [ op_code [6:0] $end
$var reg 3 \ func3 [2:0] $end
$var reg 7 ] func7 [6:0] $end
$var wire 1 ^ branch $end
$var wire 1 _ jump $end
$var wire 2 ` ALU_op [1:0] $end
$scope module md $end
$var wire 7 a op_code [6:0] $end
$var wire 3 b func3 [2:0] $end
$var reg 2 = Res_src [1:0] $end
$var reg 1 : mem_write $end
$var reg 1 ? ALU_src $end
$var reg 3 B Imm_src [2:0] $end
$var reg 4 @ wstrb [3:0] $end
$var reg 4 A wstrb_load [3:0] $end
$var reg 1 < reg_write $end
$var reg 1 c branch $end
$var reg 1 d jump $end
$var reg 2 e ALU_op [1:0] $end
$var reg 1 J pc_in_sel $end
$upscope $end
$scope module ad $end
$var wire 2 ` ALU_op [1:0] $end
$var wire 7 f op_code [6:0] $end
$var wire 3 g func3 [2:0] $end
$var wire 7 h func7 [6:0] $end
$var reg 4 > ALU_control [3:0] $end
$var reg 1 ; u_s $end
$upscope $end
$upscope $end
$scope module extendd $end
$var wire 32 i instr_i [31:0] $end
$var wire 3 j imm_src_i [2:0] $end
$var reg 32 H Imm_Ext_o [31:0] $end
$upscope $end
$scope module mux_b_in $end
$var wire 1 k ALU_Src $end
$var wire 32 l RD_2 [31:0] $end
$var wire 32 m Imm_Ext [31:0] $end
$var wire 32 n Src_B [31:0] $end
$upscope $end
$scope module alu $end
$var wire 32 o A [31:0] $end
$var wire 32 p B [31:0] $end
$var wire 4 q op [3:0] $end
$var wire 1 r u_s $end
$var reg 32 D FU [31:0] $end
$var reg 2 s zero [1:0] $end
$var reg 4 t arith_op [3:0] $end
$var reg 4 u logic_op [3:0] $end
$var reg 4 v shifter_op [3:0] $end
$var reg 4 w unit_select [3:0] $end
$var reg 32 x au_out [31:0] $end
$var reg 32 y logic_out [31:0] $end
$var reg 32 z shifter_out [31:0] $end
$var reg 1 { zero_au $end
$scope module au $end
$var wire 32 o A_i [31:0] $end
$var wire 32 p B_i [31:0] $end
$var wire 1 | C_i $end
$var wire 4 } arith_op [3:0] $end
$var wire 1 r u_s $end
$var reg 32 x Sum_o [31:0] $end
$var reg 1 ~ C_o $end
$var reg 1 !! Overflow_o $end
$var reg 1 { zero_au $end
$var reg 32 "! C [31:0] $end
$var reg 32 #! B_has [31:0] $end
$var reg 32 $! B_xor [31:0] $end
$var reg 32 %! B_oc [31:0] $end
$var reg 32 &! A_sel [31:0] $end
$scope module genblk1[0].genblk1.fa_1 $end
$var wire 1 '! A_i $end
$var wire 1 (! B_i $end
$var wire 1 | Cin $end
$var reg 1 )! Sum $end
$var reg 1 *! Cout $end
$upscope $end
$scope module genblk1[1].genblk1.fa_1 $end
$var wire 1 +! A_i $end
$var wire 1 ,! B_i $end
$var wire 1 -! Cin $end
$var reg 1 .! Sum $end
$var reg 1 /! Cout $end
$upscope $end
$scope module genblk1[2].genblk1.fa_1 $end
$var wire 1 0! A_i $end
$var wire 1 1! B_i $end
$var wire 1 2! Cin $end
$var reg 1 3! Sum $end
$var reg 1 4! Cout $end
$upscope $end
$scope module genblk1[3].genblk1.fa_1 $end
$var wire 1 5! A_i $end
$var wire 1 6! B_i $end
$var wire 1 7! Cin $end
$var reg 1 8! Sum $end
$var reg 1 9! Cout $end
$upscope $end
$scope module genblk1[4].genblk1.fa_1 $end
$var wire 1 :! A_i $end
$var wire 1 ;! B_i $end
$var wire 1 <! Cin $end
$var reg 1 =! Sum $end
$var reg 1 >! Cout $end
$upscope $end
$scope module genblk1[5].genblk1.fa_1 $end
$var wire 1 ?! A_i $end
$var wire 1 @! B_i $end
$var wire 1 A! Cin $end
$var reg 1 B! Sum $end
$var reg 1 C! Cout $end
$upscope $end
$scope module genblk1[6].genblk1.fa_1 $end
$var wire 1 D! A_i $end
$var wire 1 E! B_i $end
$var wire 1 F! Cin $end
$var reg 1 G! Sum $end
$var reg 1 H! Cout $end
$upscope $end
$scope module genblk1[7].genblk1.fa_1 $end
$var wire 1 I! A_i $end
$var wire 1 J! B_i $end
$var wire 1 K! Cin $end
$var reg 1 L! Sum $end
$var reg 1 M! Cout $end
$upscope $end
$scope module genblk1[8].genblk1.fa_1 $end
$var wire 1 N! A_i $end
$var wire 1 O! B_i $end
$var wire 1 P! Cin $end
$var reg 1 Q! Sum $end
$var reg 1 R! Cout $end
$upscope $end
$scope module genblk1[9].genblk1.fa_1 $end
$var wire 1 S! A_i $end
$var wire 1 T! B_i $end
$var wire 1 U! Cin $end
$var reg 1 V! Sum $end
$var reg 1 W! Cout $end
$upscope $end
$scope module genblk1[10].genblk1.fa_1 $end
$var wire 1 X! A_i $end
$var wire 1 Y! B_i $end
$var wire 1 Z! Cin $end
$var reg 1 [! Sum $end
$var reg 1 \! Cout $end
$upscope $end
$scope module genblk1[11].genblk1.fa_1 $end
$var wire 1 ]! A_i $end
$var wire 1 ^! B_i $end
$var wire 1 _! Cin $end
$var reg 1 `! Sum $end
$var reg 1 a! Cout $end
$upscope $end
$scope module genblk1[12].genblk1.fa_1 $end
$var wire 1 b! A_i $end
$var wire 1 c! B_i $end
$var wire 1 d! Cin $end
$var reg 1 e! Sum $end
$var reg 1 f! Cout $end
$upscope $end
$scope module genblk1[13].genblk1.fa_1 $end
$var wire 1 g! A_i $end
$var wire 1 h! B_i $end
$var wire 1 i! Cin $end
$var reg 1 j! Sum $end
$var reg 1 k! Cout $end
$upscope $end
$scope module genblk1[14].genblk1.fa_1 $end
$var wire 1 l! A_i $end
$var wire 1 m! B_i $end
$var wire 1 n! Cin $end
$var reg 1 o! Sum $end
$var reg 1 p! Cout $end
$upscope $end
$scope module genblk1[15].genblk1.fa_1 $end
$var wire 1 q! A_i $end
$var wire 1 r! B_i $end
$var wire 1 s! Cin $end
$var reg 1 t! Sum $end
$var reg 1 u! Cout $end
$upscope $end
$scope module genblk1[16].genblk1.fa_1 $end
$var wire 1 v! A_i $end
$var wire 1 w! B_i $end
$var wire 1 x! Cin $end
$var reg 1 y! Sum $end
$var reg 1 z! Cout $end
$upscope $end
$scope module genblk1[17].genblk1.fa_1 $end
$var wire 1 {! A_i $end
$var wire 1 |! B_i $end
$var wire 1 }! Cin $end
$var reg 1 ~! Sum $end
$var reg 1 !" Cout $end
$upscope $end
$scope module genblk1[18].genblk1.fa_1 $end
$var wire 1 "" A_i $end
$var wire 1 #" B_i $end
$var wire 1 $" Cin $end
$var reg 1 %" Sum $end
$var reg 1 &" Cout $end
$upscope $end
$scope module genblk1[19].genblk1.fa_1 $end
$var wire 1 '" A_i $end
$var wire 1 (" B_i $end
$var wire 1 )" Cin $end
$var reg 1 *" Sum $end
$var reg 1 +" Cout $end
$upscope $end
$scope module genblk1[20].genblk1.fa_1 $end
$var wire 1 ," A_i $end
$var wire 1 -" B_i $end
$var wire 1 ." Cin $end
$var reg 1 /" Sum $end
$var reg 1 0" Cout $end
$upscope $end
$scope module genblk1[21].genblk1.fa_1 $end
$var wire 1 1" A_i $end
$var wire 1 2" B_i $end
$var wire 1 3" Cin $end
$var reg 1 4" Sum $end
$var reg 1 5" Cout $end
$upscope $end
$scope module genblk1[22].genblk1.fa_1 $end
$var wire 1 6" A_i $end
$var wire 1 7" B_i $end
$var wire 1 8" Cin $end
$var reg 1 9" Sum $end
$var reg 1 :" Cout $end
$upscope $end
$scope module genblk1[23].genblk1.fa_1 $end
$var wire 1 ;" A_i $end
$var wire 1 <" B_i $end
$var wire 1 =" Cin $end
$var reg 1 >" Sum $end
$var reg 1 ?" Cout $end
$upscope $end
$scope module genblk1[24].genblk1.fa_1 $end
$var wire 1 @" A_i $end
$var wire 1 A" B_i $end
$var wire 1 B" Cin $end
$var reg 1 C" Sum $end
$var reg 1 D" Cout $end
$upscope $end
$scope module genblk1[25].genblk1.fa_1 $end
$var wire 1 E" A_i $end
$var wire 1 F" B_i $end
$var wire 1 G" Cin $end
$var reg 1 H" Sum $end
$var reg 1 I" Cout $end
$upscope $end
$scope module genblk1[26].genblk1.fa_1 $end
$var wire 1 J" A_i $end
$var wire 1 K" B_i $end
$var wire 1 L" Cin $end
$var reg 1 M" Sum $end
$var reg 1 N" Cout $end
$upscope $end
$scope module genblk1[27].genblk1.fa_1 $end
$var wire 1 O" A_i $end
$var wire 1 P" B_i $end
$var wire 1 Q" Cin $end
$var reg 1 R" Sum $end
$var reg 1 S" Cout $end
$upscope $end
$scope module genblk1[28].genblk1.fa_1 $end
$var wire 1 T" A_i $end
$var wire 1 U" B_i $end
$var wire 1 V" Cin $end
$var reg 1 W" Sum $end
$var reg 1 X" Cout $end
$upscope $end
$scope module genblk1[29].genblk1.fa_1 $end
$var wire 1 Y" A_i $end
$var wire 1 Z" B_i $end
$var wire 1 [" Cin $end
$var reg 1 \" Sum $end
$var reg 1 ]" Cout $end
$upscope $end
$scope module genblk1[30].genblk1.fa_1 $end
$var wire 1 ^" A_i $end
$var wire 1 _" B_i $end
$var wire 1 `" Cin $end
$var reg 1 a" Sum $end
$var reg 1 b" Cout $end
$upscope $end
$scope module genblk1[31].genblk1.fa_1 $end
$var wire 1 c" A_i $end
$var wire 1 d" B_i $end
$var wire 1 e" Cin $end
$var reg 1 f" Sum $end
$var reg 1 g" Cout $end
$upscope $end
$upscope $end
$scope module lu $end
$var wire 32 o A_i [31:0] $end
$var wire 32 p B_i [31:0] $end
$var wire 4 h" logic_op [3:0] $end
$var reg 32 y logic_out [31:0] $end
$upscope $end
$scope module su $end
$var wire 32 o A_i [31:0] $end
$var wire 32 p B_i [31:0] $end
$var wire 4 i" shifter_op [3:0] $end
$var reg 32 z shifter_out [31:0] $end
$var reg 32 j" shifter_res [31:0] $end
$var reg 32 k" A1 [31:0] $end
$var reg 32 l" A2 [31:0] $end
$var reg 32 m" A3 [31:0] $end
$var reg 32 n" A4 [31:0] $end
$upscope $end
$upscope $end
$scope module plus_imm_nextt $end
$var wire 32 o" PC [31:0] $end
$var wire 32 p" Imm_Ext [31:0] $end
$var reg 32 G PC_Target [31:0] $end
$upscope $end
$scope module d_mem $end
$var wire 1 . clk_i $end
$var wire 1 q" we_i $end
$var wire 32 r" data_in [31:0] $end
$var wire 32 s" addr_in [31:0] $end
$var wire 4 t" wstrb_i [3:0] $end
$var wire 4 u" wstrb_load [3:0] $end
$var reg 32 E data_out [31:0] $end
$var wire 1 v" address_son $end
$var reg 1 w" data_son $end
$var integer 32 x" i [31:0] $end
$var reg 10 y" address [9:0] $end
$upscope $end
$scope module mux_res $end
$var wire 2 z" Res_Src [1:0] $end
$var wire 32 {" ALU_res [31:0] $end
$var wire 32 |" read_data [31:0] $end
$var wire 32 }" PC_plus4 [31:0] $end
$var wire 32 ~" PC_target [31:0] $end
$var wire 32 !# Result [31:0] $end
$upscope $end
$scope module mux_j $end
$var wire 32 "# rs1 [31:0] $end
$var wire 32 ## pc [31:0] $end
$var wire 1 $# pc_in_sel $end
$var wire 32 %# PC_in [31:0] $end
$upscope $end
$upscope $end
$scope begin Block65_13 $end
$var reg 32 &# i [31:0] $end
$upscope $end
$upscope $end
$enddefinitions $end
#0
$dumpvars
bx !
x!!
x!"
bx !#
bx "
bx "!
x""
bx "#
bx #
bx #!
x#"
bx ##
bx $
bx $!
x$"
x$#
bx %
bx %!
x%"
bx %#
bx &
bx &!
x&"
bx &#
bx '
x'!
x'"
bx (
x(!
x("
x)
x)!
x)"
1*
x*!
x*"
0+
x+!
x+"
0,
x,!
x,"
b11111111111111111011000111100000 -
x-!
x-"
0.
x.!
x."
0/
x/!
x/"
bx 0
x0!
x0"
bx 1
x1!
x1"
bx 2
x2!
x2"
bx 3
x3!
x3"
bx 4
x4!
x4"
bx 5
x5!
x5"
bx 6
x6!
x6"
bx 7
x7!
x7"
08
x8!
x8"
x9
x9!
x9"
x:
x:!
x:"
0;
x;!
x;"
x<
x<!
x<"
b0 =
x=!
x="
b0 >
x>!
x>"
0?
x?!
x?"
bx1 @
x@!
x@"
b1111 A
xA!
xA"
b0 B
xB!
xB"
b11 C
xC!
xC"
bx D
xD!
xD"
bx E
xE!
xE"
bx F
xF!
xF"
bx G
xG!
xG"
bx H
xH!
xH"
bx I
xI!
xI"
xJ
xJ!
xJ"
xK
xK!
xK"
bx L
xL!
xL"
bx M
xM!
xM"
bx N
xN!
xN"
bx O
xO!
xO"
b0xxxxxxxxxxxxxxxxxxxxxxxxxxxxxx P
xP!
xP"
bx Q
xQ!
xQ"
xR
xR!
xR"
bx S
xS!
xS"
bx T
xT!
xT"
bx U
xU!
xU"
bx V
xV!
xV"
bx W
xW!
xW"
bx X
xX!
xX"
0Y
xY!
xY"
xZ
xZ!
xZ"
bx [
x[!
x["
bx \
x\!
x\"
bx ]
x]!
x]"
x^
x^!
x^"
x_
x_!
x_"
b0 `
x`!
x`"
bx a
xa!
xa"
bx b
xb!
xb"
xc
xc!
xc"
xd
xd!
xd"
b0 e
xe!
xe"
bx f
xf!
xf"
bx g
xg!
xg"
bx h
xh!
b0 h"
bx i
xi!
b0 i"
b0 j
xj!
bx j"
0k
xk!
bx k"
bx l
xl!
bx l"
bx m
xm!
bx m"
bx n
xn!
bx n"
bx o
xo!
bx o"
bx p
xp!
bx p"
b0 q
xq!
xq"
0r
xr!
bx r"
b0 s
xs!
bx s"
b0 t
xt!
bx1 t"
b0 u
xu!
b1111 u"
b0 v
xv!
zv"
b0 w
xw!
xw"
bx x
xx!
b10000000000 x"
bx y
xy!
bx y"
bx z
xz!
b0 z"
0{
x{!
bx {"
0|
x|!
bx |"
b0 }
x}!
bx }"
x~
x~!
bx ~"
$end
#1000
0!!
0!"
b11111111111111111111110011000111 !#
b0 "
b0 "!
0""
b0 "#
b10000000000000000000000000000000 #
b11111111111111111111110011000111 #!
1#"
b10000000000000000000000000000000 ##
b11001100011100101000000000010011 $
b1100111001 $!
0$"
0$#
b0 %
b1100111000 %!
1%"
b10000000000000000000000000000000 %#
b11111111111111111111110011000111 &
b0 &!
0&"
b11111111111111111111110011000111 '
0'!
0'"
b0 (
1(!
1("
0)
1)!
0)"
0*!
1*"
1+
0+!
0+"
1,!
0,"
0-!
1-"
1.
1.!
0."
0/!
1/"
00!
00"
b11001100011100101000000000010011 1
11!
01"
b10000000000000000000000000000000 2
02!
12"
b10000000000000000000000000000100 3
13!
03"
b11111111111111111111110011000111 4
04!
14"
b0 5
05!
05"
b0 6
06!
06"
b11111111111111111111110011000111 7
07!
17"
08!
08"
09
09!
19"
0:
0:!
0:"
0;!
0;"
1<
0<!
1<"
0=!
0="
0>!
1>"
1?
0?!
0?"
b1111 @
0@!
0@"
0A!
1A"
0B!
0B"
0C!
1C"
b11111111111111111111110011000111 D
0D!
0D"
b0 E
1E!
0E"
b10000000000000000000000000000100 F
0F!
1F"
b1111111111111111111110011000111 G
1G!
0G"
b11111111111111111111110011000111 H
0H!
1H"
b10000000000000000000000000000000 I
0I!
0I"
0J
1J!
0J"
0K
0K!
1K"
b10000000000000000000000000000100 L
1L!
0L"
b1111111111111111111110011000111 M
0M!
1M"
b10000000000000000000000000000100 N
0N!
0N"
b10000000000000000000000000000000 O
0O!
0O"
b0 P
0P!
1P"
b10000000000000000000000000000000 Q
0Q!
0Q"
1R
0R!
1R"
b11111111111111111111110011000111 S
0S!
0S"
b101 T
0T!
0T"
b111 U
0U!
1U"
b0 V
0V!
0V"
0W!
1W"
b11001100011100101000000000010011 X
0X!
0X"
1Y!
0Y"
0Z
0Z!
1Z"
b10011 [
1[!
0["
b0 \
0\!
1\"
b1100110 ]
0]!
0]"
0^
1^!
0^"
0_
0_!
1_"
b10 `
1`!
0`"
b10011 a
0a!
1a"
b0 b
0b!
0b"
0c
1c!
0c"
0d
0d!
1d"
b10 e
1e!
0e"
b10011 f
0f!
1f"
b0 g
0g!
0g"
b1100110 h
1h!
b11001100011100101000000000010011 i
0i!
1j!
b0 j"
1k
0k!
b0 k"
b0 l
0l!
b0 l"
b11111111111111111111110011000111 m
1m!
b0 m"
b11111111111111111111110011000111 n
0n!
b0 n"
b0 o
1o!
b10000000000000000000000000000000 o"
b11111111111111111111110011000111 p
0p!
b11111111111111111111110011000111 p"
0q!
0q"
1r!
b0 r"
0s!
b11111111111111111111110011000111 s"
1t!
b1111 t"
0u!
0v!
1w!
b11111111111111111111110011000111 x
0x!
b0 y
1y!
b1100110001 y"
b0 z
0z!
0{!
b11111111111111111111110011000111 {"
1|!
b0 |"
0}!
b10000000000000000000000000000100 }"
0~
1~!
b1111111111111111111110011000111 ~"
#2000
0+
0.
#3000
1+
1.
#4000
0+
1,
0.
1/
#5000
b11111111111111111111111000010100 !#
b10000000000000000000000000000100 #
b11111111111111111111111000010100 #!
b10000000000000000000000000000100 ##
b11100001010000110000000000010011 $
b111101100 $!
b111101011 %!
b10000000000000000000000000000100 %#
b11111111111111111111111000010100 &
b11111111111111111111111000010100 '
0(!
0)!
1+
0,!
1.
0.!
b11100001010000110000000000010011 1
b10000000000000000000000000000100 2
b10000000000000000000000000001000 3
b11111111111111111111111000010100 4
b11111111111111111111111000010100 7
1;!
1=!
b11111111111111111111111000010100 D
0E!
b10000000000000000000000000001000 F
b1111111111111111111111000011000 G
0G!
b11111111111111111111111000010100 H
b10000000000000000000000000000100 I
0J!
b10000000000000000000000000001000 L
0L!
b1111111111111111111111000011000 M
b10000000000000000000000000001000 N
b10000000000000000000000000000100 O
b1 P
b10000000000000000000000000000100 Q
b11111111111111111111111000010100 S
b110 T
1T!
b10100 U
1V!
b11100001010000110000000000010011 X
b1110000 ]
b1110000 h
b11100001010000110000000000010011 i
b11111111111111111111111000010100 m
b11111111111111111111111000010100 n
b10000000000000000000000000000100 o"
b11111111111111111111111000010100 p
b11111111111111111111111000010100 p"
b11111111111111111111111000010100 s"
b11111111111111111111111000010100 x
b1110000101 y"
b11111111111111111111111000010100 {"
b10000000000000000000000000001000 }"
b1111111111111111111111000011000 ~"
#6000
0+
0.
#7000
b100000001 !#
b10000000000000000000000000001000 #
b100000001 #!
0#"
b10000000000000000000000000001000 ##
b10000000100111000000000010011 $
b11111111111111111111111011111111 $!
b11111111111111111111111011111110 %!
0%"
b10000000000000000000000000001000 %#
b100000001 &
b100000001 '
1(!
0("
1)!
0*"
1+
0-"
1.
0/"
b10000000100111000000000010011 1
01!
b10000000000000000000000000001000 2
02"
b10000000000000000000000000001100 3
03!
b100000001 4
04"
b100000001 7
07"
09"
0;!
0<"
0=!
0>"
0A"
0C"
b100000001 D
b10000000000000000000000000001100 F
0F"
b10000000000000000000000100001001 G
b100000001 H
0H"
b10000000000000000000000000001000 I
0K"
b10000000000000000000000000001100 L
b10000000000000000000000100001001 M
0M"
b10000000000000000000000000001100 N
b10000000000000000000000000001000 O
1O!
b10 P
0P"
b10000000000000000000000000001000 Q
1Q!
0R"
b100000001 S
b111 T
0T!
b1 U
0U"
0V!
0W"
b10000000100111000000000010011 X
0Y!
0Z"
0[!
0\"
b1000 ]
0^!
0_"
0`!
0a"
0c!
0d"
0e!
0f"
b1000 h
0h!
b10000000100111000000000010011 i
0j!
b100000001 m
0m!
b100000001 n
0o!
b10000000000000000000000000001000 o"
b100000001 p
b100000001 p"
0r!
b100000001 s"
0t!
0w!
b100000001 x
0y!
b1000000 y"
b100000001 {"
0|!
b10000000000000000000000000001100 }"
0~!
b10000000000000000000000100001001 ~"
#8000
0+
0.
#9000
b11111111111111111111111101111101 !#
b10000000000000000000000000001100 #
b11111111111111111111111101111101 #!
1#"
b10000000000000000000000000001100 ##
b11110111110101000000000000010011 $
b10000011 $!
b10000010 %!
1%"
b10000000000000000000000000001100 %#
b11111111111111111111111101111101 &
b11111111111111111111111101111101 '
1("
1*"
1+
1-"
1.
1/"
b11110111110101000000000000010011 1
11!
b10000000000000000000000000001100 2
12"
b10000000000000000000000000010000 3
13!
b11111111111111111111111101111101 4
14"
16!
b11111111111111111111111101111101 7
17"
18!
19"
1;!
1<"
1=!
1>"
1@!
1A"
1B!
1C"
b11111111111111111111111101111101 D
1E!
b10000000000000000000000000010000 F
1F"
b1111111111111111111111110001001 G
1G!
b11111111111111111111111101111101 H
1H"
b10000000000000000000000000001100 I
1K"
b10000000000000000000000000010000 L
b1111111111111111111111110001001 M
1M"
b10000000000000000000000000010000 N
b10000000000000000000000000001100 O
b11 P
1P"
b10000000000000000000000000001100 Q
1R"
b11111111111111111111111101111101 S
b1000 T
1T!
b11101 U
1U"
1V!
1W"
b11110111110101000000000000010011 X
1Y!
1Z"
1[!
1\"
b1111011 ]
1^!
1_"
1`!
1a"
1c!
1d"
1e!
1f"
b1111011 h
1h!
b11110111110101000000000000010011 i
1j!
b11111111111111111111111101111101 m
1m!
b11111111111111111111111101111101 n
1o!
b10000000000000000000000000001100 o"
b11111111111111111111111101111101 p
b11111111111111111111111101111101 p"
1r!
b11111111111111111111111101111101 s"
1t!
1w!
b11111111111111111111111101111101 x
1y!
b1111011111 y"
b11111111111111111111111101111101 {"
1|!
b10000000000000000000000000010000 }"
1~!
b1111111111111111111111110001001 ~"
#10000
0+
0.
#11000
b11111111111111111111110011011110 !#
b10000000000000000000000000010000 #
b11111111111111111111110011011110 #!
b10000000000000000000000000010000 ##
b11001101111001001000000000010011 $
b1100100010 $!
b1100100001 %!
b10000000000000000000000000010000 %#
b11111111111111111111110011011110 &
b11111111111111111111110011011110 '
0(!
0)!
1+
1,!
1.
1.!
b11001101111001001000000000010011 1
b10000000000000000000000000010000 2
b10000000000000000000000000010100 3
b11111111111111111111110011011110 4
b11111111111111111111110011011110 7
0@!
0B!
b11111111111111111111110011011110 D
b10000000000000000000000000010100 F
b1111111111111111111110011101110 G
b11111111111111111111110011011110 H
b10000000000000000000000000010000 I
1J!
b10000000000000000000000000010100 L
1L!
b1111111111111111111110011101110 M
b10000000000000000000000000010100 N
b10000000000000000000000000010000 O
0O!
b100 P
b10000000000000000000000000010000 Q
0Q!
b11111111111111111111110011011110 S
b1001 T
0T!
b11110 U
0V!
b11001101111001001000000000010011 X
b1100110 ]
b1100110 h
b11001101111001001000000000010011 i
b11111111111111111111110011011110 m
b11111111111111111111110011011110 n
b10000000000000000000000000010000 o"
b11111111111111111111110011011110 p
b11111111111111111111110011011110 p"
b11111111111111111111110011011110 s"
b11111111111111111111110011011110 x
b1100110111 y"
b11111111111111111111110011011110 {"
b10000000000000000000000000010100 }"
b1111111111111111111110011101110 ~"
#12000
0+
0.
#13000
b11111111111111111111110111111100 !#
b10000000000000000000000000010100 #
b11111111111111111111110111111100 #!
b10000000000000000000000000010100 ##
b11011111110001010000000000010011 $
b1000000100 $!
b1000000011 %!
b10000000000000000000000000010100 %#
b11111111111111111111110111111100 &
b11111111111111111111110111111100 '
1+
0,!
1.
0.!
b11011111110001010000000000010011 1
b10000000000000000000000000010100 2
b10000000000000000000000000011000 3
b11111111111111111111110111111100 4
b11111111111111111111110111111100 7
1@!
1B!
b11111111111111111111110111111100 D
b10000000000000000000000000011000 F
b1111111111111111111111000010000 G
b11111111111111111111110111111100 H
b10000000000000000000000000010100 I
b10000000000000000000000000011000 L
b1111111111111111111111000010000 M
b10000000000000000000000000011000 N
b10000000000000000000000000010100 O
1O!
b101 P
b10000000000000000000000000010100 Q
1Q!
b11111111111111111111110111111100 S
b1010 T
b11100 U
b11011111110001010000000000010011 X
b1101111 ]
b1101111 h
b11011111110001010000000000010011 i
b11111111111111111111110111111100 m
b11111111111111111111110111111100 n
b10000000000000000000000000010100 o"
b11111111111111111111110111111100 p
b11111111111111111111110111111100 p"
b11111111111111111111110111111100 s"
b11111111111111111111110111111100 x
b1101111111 y"
b11111111111111111111110111111100 {"
b10000000000000000000000000011000 }"
b1111111111111111111111000010000 ~"
#14000
0+
0.
#15000
b11111111111111111111111100100001 !#
b10000000000000000000000000011000 #
b11111111111111111111111100100001 #!
b10000000000000000000000000011000 ##
b11110010000101011000000000010011 $
b11011111 $!
b11011110 %!
b10000000000000000000000000011000 %#
b11111111111111111111111100100001 &
b11111111111111111111111100100001 '
1(!
1)!
1+
1.
b11110010000101011000000000010011 1
01!
b10000000000000000000000000011000 2
b10000000000000000000000000011100 3
03!
b11111111111111111111111100100001 4
06!
b11111111111111111111111100100001 7
08!
0;!
0=!
b11111111111111111111111100100001 D
0E!
b10000000000000000000000000011100 F
b1111111111111111111111100111001 G
0G!
b11111111111111111111111100100001 H
b10000000000000000000000000011000 I
0J!
b10000000000000000000000000011100 L
0L!
b1111111111111111111111100111001 M
b10000000000000000000000000011100 N
b10000000000000000000000000011000 O
b110 P
b10000000000000000000000000011000 Q
b11111111111111111111111100100001 S
b1011 T
1T!
b1 U
1V!
b11110010000101011000000000010011 X
b1111001 ]
b1111001 h
b11110010000101011000000000010011 i
b11111111111111111111111100100001 m
b11111111111111111111111100100001 n
b10000000000000000000000000011000 o"
b11111111111111111111111100100001 p
b11111111111111111111111100100001 p"
b11111111111111111111111100100001 s"
b11111111111111111111111100100001 x
b1111001000 y"
b11111111111111111111111100100001 {"
b10000000000000000000000000011100 }"
b1111111111111111111111100111001 ~"
#16000
0+
0.
